{
    "dependencies":{
        "cbguard":"^3.1.0",
        "cborm":"^2.2.1+133",
        "coldbox":"^5.6.2+1021"
    },
    "installPaths":{
        "cbguard":"modules/cbguard/",
        "cborm":"modules/cborm/",
        "coldbox":"coldbox/"
    },
    "location":"",
    "name":"My ColdBox App",
    "scripts":{},
    "slug":"my-coldbox-app",
    "version":"1.0.0"
}
